{
    "results": [
      {
        "popularity": 919.111,
        "vote_count": 118,
        "video": false,
        "poster_path": "/6CoRTJTmijhBLJTUNoVSUNxZMEI.jpg",
        "id": 694919,
        "adult": false,
        "backdrop_path": "/pq0JSpwyT2URytdFG0euztQPAyR.jpg",
        "original_language": "en",
        "original_title": "Money Plane",
        "genre_ids": [
          28
        ],
        "title": "Money Plane",
        "vote_average": 6.1,
        "overview": "A professional thief with $40 million in debt and his family's life on the line must commit one final heist - rob a futuristic airborne casino filled with the world's most dangerous criminals.",
        "release_date": "2020-09-29"
      },
      {
        "popularity": 859.168,
        "vote_count": 2325,
        "video": false,
        "poster_path": "/aKx1ARwG55zZ0GpRvU2WrGrCG9o.jpg",
        "id": 337401,
        "adult": false,
        "backdrop_path": "/zzWGRw277MNoCs3zhyG3YmYQsXv.jpg",
        "original_language": "en",
        "original_title": "Mulan",
        "genre_ids": [
          28,
          12,
          18,
          14
        ],
        "title": "Mulan",
        "vote_average": 7.3,
        "overview": "When the Emperor of China issues a decree that one man per family must serve in the Imperial Chinese Army to defend the country from Huns, Hua Mulan, the eldest daughter of an honored warrior, steps in to take the place of her ailing father. She is spirited, determined and quick on her feet. Disguised as a man by the name of Hua Jun, she is tested every step of the way and must harness her innermost strength and embrace her true potential.",
        "release_date": "2020-09-04"
      },
      {
        "popularity": 741.48,
        "vote_count": 432,
        "video": false,
        "poster_path": "/qzA87Wf4jo1h8JMk9GilyIYvwsA.jpg",
        "id": 539885,
        "adult": false,
        "backdrop_path": "/54yOImQgj8i85u9hxxnaIQBRUuo.jpg",
        "original_language": "en",
        "original_title": "Ava",
        "genre_ids": [
          28,
          80,
          18,
          53
        ],
        "title": "Ava",
        "vote_average": 5.9,
        "overview": "A black ops assassin is forced to fight for her own survival after a job goes dangerously wrong.",
        "release_date": "2020-07-02"
      },
      {
        "popularity": 658.992,
        "vote_count": 580,
        "video": false,
        "poster_path": "/sy6DvAu72kjoseZEjocnm2ZZ09i.jpg",
        "id": 581392,
        "adult": false,
        "backdrop_path": "/gEjNlhZhyHeto6Fy5wWy5Uk3A9D.jpg",
        "original_language": "ko",
        "original_title": "반도",
        "genre_ids": [
          28,
          27,
          53
        ],
        "title": "Peninsula",
        "vote_average": 7.1,
        "overview": "A soldier and his team battle hordes of post-apocalyptic zombies in the wastelands of the Korean Peninsula.",
        "release_date": "2020-07-15"
      },
      {
        "popularity": 505.327,
        "vote_count": 55,
        "video": false,
        "poster_path": "/4BgSWFMW2MJ0dT5metLzsRWO7IJ.jpg",
        "id": 726739,
        "adult": false,
        "backdrop_path": "/t22fWbzdnThPseipsdpwgdPOPCR.jpg",
        "original_language": "en",
        "original_title": "Cats & Dogs 3: Paws Unite",
        "genre_ids": [
          28,
          35
        ],
        "title": "Cats & Dogs 3: Paws Unite",
        "vote_average": 6.6,
        "overview": "It's been ten years since the creation of the Great Truce, an elaborate joint-species surveillance system designed and monitored by cats and dogs to keep the peace when conflicts arise. But when a tech-savvy villain hacks into wireless networks to use frequencies only heard by cats and dogs, he manipulates them into conflict and the worldwide battle between cats and dogs is BACK ON. Now, a team of inexperienced and untested agents will have to use their old-school animal instincts to restore order and peace between cats and dogs everywhere.",
        "release_date": "2020-10-02"
      },
      {
        "popularity": 351.986,
        "vote_count": 433,
        "video": false,
        "poster_path": "/kiX7UYfOpYrMFSAGbI6j1pFkLzQ.jpg",
        "id": 613504,
        "adult": false,
        "backdrop_path": "/r5srC0cqU36n38azFnCyReEksiR.jpg",
        "original_language": "en",
        "original_title": "After We Collided",
        "genre_ids": [
          18,
          10749
        ],
        "title": "After We Collided",
        "vote_average": 6.6,
        "overview": "Tessa finds herself struggling with her complicated relationship with Hardin; she faces a dilemma that could change their lives forever.",
        "release_date": "2020-09-02"
      },
      {
        "popularity": 309.236,
        "vote_count": 1177,
        "video": false,
        "poster_path": "/7W0G3YECgDAfnuiHG91r8WqgIOe.jpg",
        "id": 446893,
        "adult": false,
        "backdrop_path": "/qsxhnirlp7y4Ae9bd11oYJSX59j.jpg",
        "original_language": "en",
        "original_title": "Trolls World Tour",
        "genre_ids": [
          12,
          16,
          35,
          14,
          10402,
          10751
        ],
        "title": "Trolls World Tour",
        "vote_average": 7.6,
        "overview": "Queen Poppy and Branch make a surprising discovery — there are other Troll worlds beyond their own, and their distinct differences create big clashes between these various tribes. When a mysterious threat puts all of the Trolls across the land in danger, Poppy, Branch, and their band of friends must embark on an epic quest to create harmony among the feuding Trolls to unite them against certain doom.",
        "release_date": "2020-03-12"
      },
      {
        "popularity": 239.273,
        "vote_count": 162,
        "video": false,
        "poster_path": "/irkse1FMm9dWemwlxKJ7RINT9Iy.jpg",
        "id": 627290,
        "adult": false,
        "backdrop_path": "/pGqBDYycGWsMYc57sYv5M9GAQoW.jpg",
        "original_language": "en",
        "original_title": "Antebellum",
        "genre_ids": [
          27
        ],
        "title": "Antebellum",
        "vote_average": 6,
        "overview": "Successful author Veronica finds herself trapped in a horrifying reality and must uncover the mind-bending mystery before it's too late.",
        "release_date": "2020-09-02"
      },
      {
        "popularity": 215.491,
        "vote_count": 419,
        "video": false,
        "poster_path": "/zGVbrulkupqpbwgiNedkJPyQum4.jpg",
        "id": 592350,
        "adult": false,
        "backdrop_path": "/9guoVF7zayiiUq5ulKQpt375VIy.jpg",
        "original_language": "ja",
        "original_title": "僕のヒーローアカデミア THE MOVIE ヒーローズ：ライジング",
        "genre_ids": [
          28,
          16
        ],
        "title": "My Hero Academia: Heroes Rising",
        "vote_average": 8.6,
        "overview": "Class 1-A visits Nabu Island where they finally get to do some real hero work. The place is so peaceful that it's more like a vacation … until they're attacked by a villain with an unfathomable Quirk! His power is eerily familiar, and it looks like Shigaraki had a hand in the plan. But with All Might retired and citizens' lives on the line, there's no time for questions. Deku and his friends are the next generation of heroes, and they're the island's only hope.",
        "release_date": "2019-12-20"
      },
      {
        "popularity": 212.916,
        "vote_count": 83,
        "video": false,
        "poster_path": "/gzFatNrw0lhKD5NxaU6zC7S2KjP.jpg",
        "id": 659986,
        "adult": false,
        "backdrop_path": "/xUUtcxWC6H48UCrpRwwSPQz69XC.jpg",
        "original_language": "en",
        "original_title": "The Owners",
        "genre_ids": [
          28,
          27,
          53
        ],
        "title": "The Owners",
        "vote_average": 5.7,
        "overview": "A group of friends think they found the perfect easy score - an empty house with a safe full of cash. But when the elderly couple that lives there comes home early, the tables are suddenly turned. As a deadly game of cat and mouse ensues, the would-be thieves must fight to save themselves from a nightmare they could never have imagined.",
        "release_date": "2020-08-27"
      },
      {
        "popularity": 206.984,
        "vote_count": 377,
        "video": false,
        "poster_path": "/hPkqY2EMqWUnFEoedukilIUieVG.jpg",
        "id": 531876,
        "adult": false,
        "backdrop_path": "/n1RohH2VoK1CdVI2fXvcP19dSlm.jpg",
        "original_language": "en",
        "original_title": "The Outpost",
        "genre_ids": [
          28,
          18,
          36,
          10752
        ],
        "title": "The Outpost",
        "vote_average": 6.7,
        "overview": "A small unit of U.S. soldiers, alone at the remote Combat Outpost Keating, located deep in the valley of three mountains in Afghanistan, battles to defend against an overwhelming force of Taliban fighters in a coordinated attack. The Battle of Kamdesh, as it was known, was the bloodiest American engagement of the Afghan War in 2009 and Bravo Troop 3-61 CAV became one of the most decorated units of the 19-year conflict.",
        "release_date": "2020-06-24"
      },
      {
        "popularity": 205.855,
        "id": 528085,
        "video": false,
        "vote_count": 24,
        "vote_average": 4.7,
        "title": "2067",
        "release_date": "2020-10-01",
        "original_language": "en",
        "original_title": "2067",
        "genre_ids": [
          878,
          53
        ],
        "backdrop_path": "/5UkzNSOK561c2QRy2Zr4AkADzLT.jpg",
        "adult": false,
        "overview": "A lowly utility worker is called to the future by a mysterious radio signal, he must leave his dying wife to embark on a journey that will force him to face his deepest fears in an attempt to change the fabric of reality and save humankind from its greatest environmental crisis yet.",
        "poster_path": "/7D430eqZj8y3oVkLFfsWXGRcpEG.jpg"
      },
      {
        "popularity": 197.092,
        "vote_count": 131,
        "video": false,
        "poster_path": "/ucktgbaMSaETUDLUBp1ubGD6aNj.jpg",
        "id": 619592,
        "adult": false,
        "backdrop_path": "/eIqyISB5j99OSRZUuvdN9g2bBsS.jpg",
        "original_language": "en",
        "original_title": "Force of Nature",
        "genre_ids": [
          28,
          80,
          18
        ],
        "title": "Force of Nature",
        "vote_average": 5.3,
        "overview": "A gang of thieves plan a heist during a hurricane and encounter trouble when a disgraced cop tries to force everyone in the building to evacuate.",
        "release_date": "2020-07-02"
      },
      {
        "popularity": 175.268,
        "vote_count": 44,
        "video": false,
        "poster_path": "/vQgXwuJrlpzGDI8169tRQRy71Nv.jpg",
        "id": 479259,
        "adult": false,
        "backdrop_path": "/wUP0KIAXcRevjjJpoSKT7LLhiaK.jpg",
        "original_language": "en",
        "original_title": "Lost Girls & Love Hotels",
        "genre_ids": [
          18,
          53
        ],
        "title": "Lost Girls & Love Hotels",
        "vote_average": 5.2,
        "overview": "Searching for escape in Tokyo's back alleys, a haunted English teacher explores love and lust with a dashing Yakuza, as their tumultuous affair takes her on a journey through the city's dive bars and three-hour love hotels.",
        "release_date": "2020-09-18"
      },
      {
        "popularity": 173.628,
        "vote_count": 1972,
        "video": false,
        "poster_path": "/k68nPLbIST6NP96JmTxmZijEvCA.jpg",
        "id": 577922,
        "adult": false,
        "backdrop_path": "/wzJRB4MKi3yK138bJyuL9nx47y6.jpg",
        "original_language": "en",
        "original_title": "Tenet",
        "genre_ids": [
          28,
          878,
          53
        ],
        "title": "Tenet",
        "vote_average": 7.5,
        "overview": "Armed with only one word - Tenet - and fighting for the survival of the entire world, the Protagonist journeys through a twilight world of international espionage on a mission that will unfold in something beyond real time.",
        "release_date": "2020-08-22"
      },
      {
        "popularity": 169.994,
        "vote_count": 704,
        "video": false,
        "poster_path": "/4w1ItwCJCTtSi9nPfJC1vU6NIVg.jpg",
        "id": 413518,
        "adult": false,
        "backdrop_path": "/AdqOBPw4PdtzOcfEuQuZ8MNeTKb.jpg",
        "original_language": "it",
        "original_title": "Pinocchio",
        "genre_ids": [
          12,
          18,
          14,
          10751
        ],
        "title": "Pinocchio",
        "vote_average": 6.8,
        "overview": "In this live-action adaptation of the beloved fairytale, old woodcarver Geppetto fashions a wooden puppet, Pinocchio, who magically comes to life. Pinocchio longs for adventure and is easily led astray, encountering magical beasts, fantastical spectacles, while making friends and foes along his journey. However, his dream is to become a real boy, which can only come true if he finally changes his ways.",
        "release_date": "2019-12-19"
      },
      {
        "popularity": 164.657,
        "vote_count": 940,
        "video": false,
        "poster_path": "/7G2VvG1lU8q758uOqU6z2Ds0qpA.jpg",
        "id": 499932,
        "adult": false,
        "backdrop_path": "/rUeqBuNDR9zN6vZV9kpEFMtQm0E.jpg",
        "original_language": "en",
        "original_title": "The Devil All the Time",
        "genre_ids": [
          80,
          18,
          53
        ],
        "title": "The Devil All the Time",
        "vote_average": 7.4,
        "overview": "In Knockemstiff, Ohio and its neighboring backwoods, sinister characters converge around young Arvin Russell as he fights the evil forces that threaten him and his family.",
        "release_date": "2020-09-11"
      },
      {
        "popularity": 163.947,
        "vote_count": 217,
        "video": false,
        "poster_path": "/4V2nTPfeB59TcqJcUfQ9ziTi7VN.jpg",
        "id": 501979,
        "adult": false,
        "backdrop_path": "/oazPqs1z78LcIOFslbKtJLGlueo.jpg",
        "original_language": "en",
        "original_title": "Bill & Ted Face the Music",
        "genre_ids": [
          12,
          35,
          878
        ],
        "title": "Bill & Ted Face the Music",
        "vote_average": 6.4,
        "overview": "Yet to fulfill their rock and roll destiny, the now middle-aged best friends Bill and Ted set out on a new adventure when a visitor from the future warns them that only their song can save life as we know it. Along the way, they are helped by their daughters, a new batch of historical figures and a few music legends—to seek the song that will set their world right and bring harmony to the universe.",
        "release_date": "2020-08-27"
      },
      {
        "popularity": 161.155,
        "vote_count": 5,
        "video": false,
        "poster_path": "/xIKVeH1iAKJOYYh9lvObD3hYIaf.jpg",
        "id": 605499,
        "adult": false,
        "backdrop_path": "/48OhmVjmjqhB1TrevTMKwKUDetU.jpg",
        "original_language": "en",
        "original_title": "Monsoon",
        "genre_ids": [
          18,
          10749
        ],
        "title": "Monsoon",
        "vote_average": 5.6,
        "overview": "Kit can’t remember much of his native Vietnam. When he returns to the Land of the Golden Star for the first time in over thirty years, he takes in his local surroundings as any Western tourist would, and the environment is as exotic as the language is incomprehensible. The aim of Kit’s travels – to find a place to scatter his parents’ ashes – thus becomes part of a journey back to his roots and to the discovery of his identity, which external circumstances have rendered ambiguous and complex.",
        "release_date": "2020-09-25"
      },
      {
        "popularity": 155.642,
        "vote_count": 321,
        "video": false,
        "poster_path": "/xrI4EnZWftpo1B7tTvlMUXVOikd.jpg",
        "id": 340102,
        "adult": false,
        "backdrop_path": "/eCIvqa3QVCx6H09bdeOS8Al2Sqy.jpg",
        "original_language": "en",
        "original_title": "The New Mutants",
        "genre_ids": [
          28,
          12,
          27,
          878
        ],
        "title": "The New Mutants",
        "vote_average": 5.8,
        "overview": "Five young mutants, just discovering their abilities while held in a secret facility against their will, fight to escape their past sins and save themselves.",
        "release_date": "2020-08-26"
      }
    ],
    "page": 1,
    "total_results": 1274,
    "dates": {
      "maximum": "2020-10-14",
      "minimum": "2020-08-27"
    },
    "total_pages": 64
  }